ID,Expression
55343,352.5558
4023,892.9668
23443,213.8497
55293,261.5251
51268,156.0525
345,0.0
341,49.1276
343,0.7225
348,528.8444
3992,577.2496
3990,11.5595
1158,470.3247
55902,872.7378
55907,739.0817
10965,626.3772
4731,636.4917
81539,1580.7535
81537,340.281
154091,1089.4773
6799,5.0573
55586,0.0
292,4536.3581
293,9437.561
290,502.1132
51606,1338.7205
586,471.7625
4524,770.1477
587,627.432
56052,296.2613
270,0.0
271,526.677
272,66.9436
275,290.5538
276,0.7225
279,0.7225
283871,185.6735
80201,0.7225
85320,0.0
108,203.0127
109,807.8966
100,115.5944
107,64.2994
2517,650.9411
79813,1158.8339
84129,426.9768
79814,0.0
64902,0.0
9415,752.8086
10632,2614.601
53354,85.2509
10380,315.7172
2638,0.0
8942,13.7268
7264,588.0865
84693,108.3698
7263,458.7653
5296,771.5926
5297,2527.9052
2686,260.0874
2687,594.5887
5294,58.5197
2683,1764.2597
5295,6747.1011
84679,3.6123
98,137.2684
10560,933.4248
10568,0.7224
95,157.4974
97,50.5725
1622,700.6032
1621,0.0
10090,490.5538
5184,1598.0927
1629,1261.424
8836,53.4624
8833,871.2929
29968,47.6827
9227,5.7797
3340,1872.6294
5051,264.4222
1757,4.3348
4259,1762.8148
4258,584.4742
79623,5.0573
1178,0.0
5538,2635.5525
29925,125.7089
11164,156.775
50700,0.0
1579,0.0
8760,842.387
1572,0.0
1571,15.1718
686,536.7916
1577,8.3951
1576,0.0
682,17460.5281
51477,144.4929
51478,46.2378
8540,1487.5555
6572,0.0
6573,39.0131
6570,0.0
6571,41.1805
6576,1097.4245
6574,446.4834
6575,1249.8646
6578,801.2137
6579,0.0
1371,229.0214
1373,37.5682
1375,442.5604
1374,3188.2383
1376,554.1307
28965,1.4449
2744,1476.6247
23475,62.132
4594,1090.1998
2746,4052.3065
55627,1194.0974
23478,1744.0306
136332,1.4449
4036,0.0
4846,230.936
253430,31.7885
92086,0.7225
57393,24.5638
51079,2051.7213
51071,384.3514
51296,278.8715
1244,20.9515
51292,708.6081
65263,77.3038
128869,339.5586
6783,5.0572
4729,1246.9747
4728,1103.9265
4725,2400.0289
4724,734.747
4726,760.0332
4720,1665.9972
4723,2236.7518
4722,984.4959
64849,19.9328
64841,460.2102
11282,718.8527
11285,258.6425
247,6.5022
246,0.7225
117247,5.7798
240,178.4489
242,0.0
150763,36.8457
117248,4480.7283
249,75.8588
248,0.0
81616,1.4449
57665,551.3203
51604,2442.6038
64600,0.0
51102,261.5396
291,3558.8629
51109,2326.3375
9536,302.7129
125061,87.4183
9245,0.7225
122970,12.2819
56913,105.48
178,1582.9281
175,126.4314
30061,2157.2806
26035,340.2811
10400,127.8763
9334,2171.7299
10402,54.9074
53343,652.3931
10390,486.9415
57084,0.0
10396,287.5411
54965,660.3331
54963,390.8536
6818,256.0055
54981,216.0244
84649,107.6473
6817,119.9291
5198,244.1931
10087,1679.0087
1962,179.1713
115019,0.0
2877,1.4449
2876,2203.5184
2875,5.7798
54187,364.8448
2878,13697.2149
54344,292.5983
8574,772.3152
79017,465.2747
28982,45.5153
8622,273.0918
1544,0.0
1543,530.6362
11112,1422.5337
1548,19.5066
8714,18.0616
83733,33.2334
549,196.5105
23600,397.3558
8029,26.0087
51447,451.2589
15,1.4449
765,0.0
8534,26.0087
5137,671.8853
6569,0.0
6568,0.0
6565,18.7841
6564,0.7225
6567,471.7697
6566,1413.8641
6561,0.0
6560,2236.0799
6563,33.2334
410,414.695
411,654.5533
412,510.0603
1384,1804.725
23464,153.1626
55326,308.4926
65985,380.7391
8443,1442.0403
4284,0.0
256435,137.2684
55748,831.5573
366,79.4712
362,0.0
361,3.6123
383,8.6696
384,227.8294
4758,969.5481
4759,0.0
64850,2.1674
84803,119.2067
27159,0.0
9962,796.879
9963,1.4449
60482,61.4096
60481,1333.6705
2194,2642.7772
250,0.0
251,0.0
55811,0.0
2203,28.8986
124935,653.8309
57678,626.3771
63917,1009.9989
57419,933.4248
94005,1061.3012
79837,665.3903
7841,455.153
4831,4084.5356
4830,282.0287
4833,3548.7483
4832,362.6775
4522,1527.2406
4837,2650.7243
7991,200.8452
2519,575.0822
9435,57.0747
2512,53841.7079
9615,0.0
2730,226.854
2731,0.0
5298,1568.4717
9348,2.1674
10166,62.1537
10165,197.9555
10164,0.0
2739,1862.5149
5290,726.0774
5291,812.0507
9187,220.3519
5050,26.4494
83852,469.6022
5052,4784.8859
5053,0.0
84076,0.0
1811,6.5022
10768,4709.7496
54407,3298.053
54995,101.8676
4952,3115.999
4953,2213.6401
1609,242.0258
1608,891.5219
9296,1129.1768
1603,1658.7798
1607,197.9554
1606,63.6347
54575,0.9826
54576,0.0
54578,0.0
54579,0.0
8854,227.5765
5476,2041.6863
5471,137.2684
347734,693.5664
5277,132.2183
5279,590.2468
7054,0.7225
2998,4.3348
1159,0.7225
6999,2.8899
8639,23056.7496
8140,1473.1062
1152,21103.2041
1551,0.7225
1553,0.7225
29124,0.0
3038,41.903
1557,0.0
55,2.1674
54,377.1268
3036,136.546
3037,103.8977
3030,6767.3301
50,3993.5195
3032,4036.4122
52,957.2663
8703,348.2282
3034,2.8899
535,1269.3638
534,34.6783
533,831.5573
5805,206.625
8705,252.1403
1558,1.4449
2992,5422.8227
539,3115.2693
8034,166.167
51,1598.8152
132789,637.2213
10026,759.3108
8529,0.0
8528,131.4887
53,585.9192
3295,1582.9209
205,750.6411
2997,1150.8869
8527,804.1036
8526,378.5717
8525,380.9558
6518,24.5639
6519,2.3769
28231,143.6983
28232,359.0651
6510,2210.7431
6511,0.7225
6512,176.8666
6513,616.2627
6514,0.0
6515,1535.9607
6517,4183.0727
10020,1047.5743
5130,492.7212
427,3935.9896
8706,180.6163
23498,523.7871
29906,2.8899
51056,1325.7234
27010,127.1538
23382,236.9758
50506,52.0174
55268,554.8533
8704,1512.8418
55790,1132.8252
10998,82.4838
10999,478.9943
10993,2.1674
55315,165.4518
55312,457.3204
27124,25.0695
60490,125.7089
64132,741.9716
64131,1251.3095
60496,538.959
124637,570.7474
2182,1518.6215
2181,1630.6036
2180,2485.7855
229,3.6123
2184,446.31
226,27205.9025
225,123.5415
224,1934.039
223,2600.1518
222,2.1674
220,199.1764
27235,96.0879
27232,0.7225
6697,783.1521
159,869.1255
158,1075.7433
9990,487.8445
80162,108.3698
6342,2468.3234
80168,0.0
6185,3011.2054
6184,2957.7719
9420,31.066
200576,886.4646
5289,520.8973
28234,0.0
2720,814.2181
5281,76.9208
113189,379.2942
5283,211.3644
5287,730.4122
5286,1867.572
7941,31.066
9197,426.2544
5048,4538.5254
1807,0.7225
1806,860.4559
84002,165.4445
1800,0.0
8992,2715.0237
1809,31617.9605
1808,4732.8685
9514,10.837
9517,688.5092
159963,3.6123
246213,0.0
8867,298.378
7306,85.9733
3251,294.0433
8869,569.3024
122481,14.4493
84532,620.5974
1491,47.6827
5464,1457.9345
10201,164.7148
5265,92.1865
10195,468.8726
8608,1.4666
1120,161.731
8604,1428.3134
11136,7.2246
171425,140.1582
115584,0.0
3028,897.3016
2983,101.8676
2982,203.1066
2987,2243.9764
2984,1.4449
525,3.6123
526,1763.5372
527,1220.2435
521,1218.7985
522,2722.0894
523,701.5136
528,1347.3973
529,3408.5973
8513,0.0
4199,1910.1976
4190,3678.0696
4191,3502.5105
197258,200.1228
197257,14.4493
195814,0.0
4351,640.0968
8288,0.7225
4353,2.8899
11001,8.6696
11000,484.0516
6507,284.644
6506,15.1718
6505,226.1316
79611,106.9249
438,0.7225
126129,43.5863
144193,4.3348
435,252.8627
144195,25.2863
23483,169.0568
155184,0.0
641649,242.5748
11343,4171.5204
51022,140.8807
23396,4214.1386
160851,84.5284
50515,131.4887
112724,143.0481
55276,446.4834
26289,13.7268
81579,957.9887
93100,409.6377
9942,70.8015
55301,1.4449
55650,344.6158
55304,101.1451
9945,724.6324
56474,465.99
51805,157.4974
56301,6.5455
51809,505.7255
130752,29.6211
239,10.8369
230,523.0647
231,1612.542
2224,920.9623
441024,143.7489
2222,1567.4529
10057,551.183
10724,4171.2965
134526,0.0
5143,7.9471
4507,926.9299
5140,1046.8518
10050,0.0
26063,345.3383
5351,2804.6093
26061,265.0147
80150,42.6255
2538,0.0
2539,1608.9296
2530,353.726
2531,2479.5001
2712,0.0
2710,62.8545
2717,164.7221
8985,1481.7758
10690,18.7841
9167,1506.3397
9162,13.7268
56895,268.757
56894,1421.0888
1836,356.1753
3795,155.2577
337876,20.9515
56898,593.8663
9563,2277.9323
6240,1276.5957
6241,5.7797
80025,367.7347
54682,520.1749
8875,46.9602
8877,130.2315
8876,51.295
8879,694.2889
3242,173.3916
54511,9.392
84706,196.5105
84701,23.1189
9016,106.2096
5498,163.0025
58497,839.4972
5250,8375.5229
5251,0.7225
1717,168.3343
1716,412.5276
790,788.9318
1719,227.6487
1718,192.1757
9388,2.8899
2799,4057.3637
83549,733.302
23057,62.132
115111,2.8899
112483,759.3108
54020,83.8059
79751,111.9821
257068,0.0
518,2354.5209
29929,98.9777
29926,468.8871
513,1051.1867
515,2485.2798
29922,200.419
517,3639.779
516,731.1346
8501,780.2623
622,327.2767
8503,1075.7577
8050,830.6975
8509,377.1196
6536,546.8483
6534,0.0
6535,2162.3379
6532,1.4449
6530,1.4449
6531,0.0
6538,0.0
6539,9.3921
2882,142.3256
7498,0.0
206358,252.8628
374569,18.0616
8611,2056.1716
8613,6432.8288
8612,11.5594
91734,68.6342
115286,513.4125
11332,424.8095
23236,1235.4153
13,15.8942
12,1113.9544
55065,0.0
19,3731.5175
18,158.9423
27034,347.7947
3906,0.0
26290,0.0
4166,7.2246
64802,293.3208
27109,100.4227
9955,7.2247
9956,26.0087
9951,2.1674
56848,233.5874
9953,0.0
203,966.6582
117283,112.7045
204,1120.5361
55512,13.7268
80704,87.4183
166785,104.7574
79717,919.698
135152,55.9477
2235,753.531
65220,929.0901
7360,6034.7505
25769,0.0
81490,433.479
51146,0.0
157506,823.6102
57134,821.4427
64579,0.0
6309,1150.8869
3658,965.9358
2098,2808.9442
2525,0.7225
2523,26.7312
80142,596.7562
80146,490.5537
26275,533.9017
26279,0.0
66002,39.0131
4881,1167.5035
4882,721.7426
9374,359.8816
9377,921.8654
10682,203.0127
2147,2.8899
81031,352.5629
5743,4622.3314
113278,20.9515
8884,197.9554
7363,0.0
7364,0.0
7365,0.0
7366,0.0
90701,278.8715
492,1.4449
84735,0.7225
54657,0.0
54659,0.0
54658,0.0
140679,0.0
10229,496.3335
80854,6237.0407
9394,635.7692
9390,0.0
5244,39.7356
788,453.7081
1723,113.427
83884,0.0
5625,25.2863
3000,0.0
1588,163.9996
1589,16.6167
1582,17.3392
1583,2.8899
1581,0.0
1586,0.7225
1584,0.0
1585,0.0
7384,3133.3237
137964,1352.4546
509,2777.1484
506,11761.0086
1036,422.6421
501,1245.5298
635,6.5022
6521,5.0573
6520,1850.5509
6523,0.0
6522,2314.2723
6524,0.0
6526,490.8572
6529,9.392
6528,0.7225
9453,855.3986
1103,0.0
129607,73.6914
1109,0.0
11320,506.448
8402,1140.7724
5728,2212.9105
5723,146.6604
51557,0.0
51004,259.6973
170712,0.0
7779,266.5896
55217,182.7836
8310,538.2293
2132,1415.309
5836,367.0122
5837,2139.219
5834,38132.4278
5832,812.0507
27115,580.8619
5831,53.4552
2131,882.1298
11253,829.3972
64816,0.0
4035,16546.6171
216,806.9935
64781,1373.406
116369,1.4449
215,822.1653
212,8.6696
213,0.0
210,1675.3964
211,882.1299
218,9.3921
219,12047.8272
6648,8826.5433
6649,2728.7505
6646,435.6465
6647,4425.0984
51179,0.7225
93010,84.5284
6392,2288.0468
6390,1278.0407
6391,1478.8859
10327,934.1474
5288,7.9472
5019,2195.5713
4891,603.0272
200010,8.6696
9497,390.738
79966,603.2583
2806,2060.4703
1854,729.798
4967,5874.0527
162417,5.7797
10786,0.0
847,2322.0027
7378,226.1316
84720,281.0461
8898,1192.0674
7372,363.3999
54539,799.0463
9194,109.8146
5049,299.1005
10257,716.6564
5238,172.3585
1738,2970.0539
5230,4847.7405
5232,0.0
1737,874.1827
84340,366.2898
84618,0.7225
29920,1386.4104
759,0.0
5833,507.1633
79087,392.2985
1595,624.9323
1594,2.8899
3073,1282.2238
3074,1763.0025
1593,772.3151
2954,140.8807
6888,5596.9368
5340,0.0
7166,0.7225
7167,4533.4682
79178,342.4485
169355,0.7225
4363,2382.0901
1200,4951.053
123099,2.8899
30815,2446.4112
30814,0.0
92579,581.5194
3101,59.2421
1119,325.1092
1118,6.5022
23743,899.469
55191,395.1812
50940,8.6696
5730,837.337
6785,117.7618
26503,446.4834
483,1076.473
482,70.8016
481,962.0272
10975,1448.5424
51528,392.2985
9807,1453.5997
51540,249.973
89874,8.619
91373,275.9817
6723,1069.9707
6482,1853.1229
6480,1088.0251
8309,540.4039
5825,936.3147
51301,176.2815
51302,126.4314
4144,3860.1236
4143,5.7797
6484,666.12
56623,272.3693
222537,0.7225
64772,254.3005
80724,329.444
51166,145.2155
259230,796.879
6652,141.6031
55224,170.5017
84912,440.7037
55229,715.2404
191,2019.2898
6389,2842.9
2548,1718.7444
27306,150.2727
79369,0.0
9154,0.0
10331,2.8899
9153,1.4449
9152,0.0
2762,80.1936
5009,10.1145
2766,268.0345
9489,335.2237
9488,106.1301
146712,46.4039
9481,211.6823
9487,22.3965
130013,0.0
80055,320.7745
1841,154.6076
377677,7.9471
2168,0.0
9551,484.7741
9550,1024.4554
54490,0.0
2618,835.1697
64220,2.1674
5139,117.7618
5138,2404.3564
3294,0.0
5136,833.0022
376497,577.9721
10797,1067.8107
3290,130.7662
3291,7.2247
3292,21.3199
3293,0.0
55808,20.9515
22978,1118.3759
113675,46.9602
57379,1.4449
54677,431.3116
54675,559.188
7001,2841.4551
2271,1357.5118
10246,0.0
9023,102.59
8566,1466.604
5223,3605.1006
5226,926.2002
5224,20.9515
387775,0.0
90161,0.0
29880,391.576
29881,18.0617
284098,54.1849
3067,86.6957
7173,52.74
6898,0.0
2944,0.7225
10905,882.8523
5352,1675.4036
1056,10.1145
11185,389.4087
151531,0.0
11046,320.0448
64064,2.1674
11041,944.2618
8790,224.9395
91703,0.7225
267020,0.0
8647,0.7225
51005,150.0343
8424,1.4449
23205,71.524
129807,1.4449
50484,890.077
50487,0.0
5740,20653.8309
11309,1536.6833
5742,44440.9855
2597,52883.1196
498,11436.6218
495,0.0
496,0.0
490,786.042
491,9.3921
132158,38.2906
493,21925.3694
26,4.3348
6472,476.8269
6470,427.8004
6476,0.0
3939,8676.8053
3938,0.0
3931,165.8996
5264,1434.0931
6718,0.0
6715,69.3566
6713,46.9602
55454,965.2133
377841,0.0
65010,83.8059
93034,1.3655
4047,1614.7166
51196,140.8806
4048,1425.4235
51205,275.9817
10870,91.0306
10873,320.7745
79896,119.2067
4548,1980.2767
90423,30.3436
2572,0.0
2571,0.0
26229,373.5217
26227,1181.2304
2595,308.7527
9123,209.5004
2590,1642.163
2591,14.4493
2592,275.2592
2593,256.4751
10654,706.5708
5034,7098.9344
5033,726.7998
7915,230.4664
4942,2847.9573
53919,2.8899
978,80.9161
2110,548.3511
189,0.0
140838,118.4843
1559,0.0
54480,716.6854
2628,725.3548
2629,648.0511
7351,453.7081
9583,327.2767
7352,21.6739
7355,227.5692
7357,198.6779
7358,885.7422
9588,4677.2387
3284,0.7225
5106,186.4033
5105,27.4536
118881,50.5725
2026,2333.5621
2027,46.9603
2752,19418.4229
2023,13305.4583
883,115.5944
9058,0.0
5214,5193.8012
10476,2358.1259
5213,2551.7466
5210,34.6783
5211,2422.4325
10478,155.3227
9056,190.0084
10157,374.2369
353,557.0205
771,841.6717
2819,439.2588
339221,0.0
2978,0.0
7108,98.2552
2977,4.3348
1040,15.8942
3029,721.7426
7350,0.0
79723,120.6517
57818,0.0
669,383.6289
217,12048.5497
29988,2051.8007
8789,0.0
30833,346.7832
55500,607.5931
3283,0.0
55501,235.5236
8659,645.1613
1468,40.4581
114971,358.6316
8654,4283.4736
8435,0.7225
1312,1149.4491
284111,2.1674
23761,414.6949
6916,219.2754
6448,668.2802
8733,1163.1687
23169,544.7386
92483,0.0
50814,284.6512
3948,0.7225
318,508.6154
55089,8.6696
130367,0.0
316,2813.2789
314,17.3392
126792,245.6381
341947,0.0
4129,5685.7927
4128,6356.2475
4123,889.3545
4122,1285.9878
4121,2778.6006
4126,754.976
4125,1339.4502
4124,421.1971
6675,1614.7094
23417,897.3016
4056,25.8931
4051,8.6696
51181,348.2282
50614,0.0
50617,0.0
5973,173.3917
131669,0.0
10861,7.9472
10864,0.0
3612,340.281
3613,3239.526
3614,859.4878
3615,2368.9629
116285,0.7225
56994,1153.7767
4357,736.9144
23545,459.4878
56606,52.0175
10919,1700.6465
2585,309.9881
2584,150.9952
2583,37.2143
7923,135.8234
2581,570.0249
7298,77.0581
7299,0.0
10312,682.7367
6509,374.9665
2589,1214.4637
2588,181.3387
6508,439.2587
83594,389.4087
121260,492.7212
53905,33.2334
57171,124.264
2109,1767.1495
2108,1569.1941
80270,451.5407
80271,1210.8514
10005,322.8986
10007,932.6952
2639,419.0297
83697,1.4449
64241,0.0
64240,0.0
54872,310.0965
875,177.0039
873,1100.0903
2745,352.563
4597,400.2457
2747,484.0516
2030,2618.2639
5293,342.4484
4598,174.8365
9057,755.9513
4842,9.392
4843,10.8731
5207,3.6123
5209,1057.6888
5208,244.9156
80308,387.2412
1788,369.9021
1789,8.7202
768,1.1054
762,65.0219
763,0.0
760,31.066
761,36.8457
766,0.0
767,52.74
1786,677.6723
1787,79.2833
1610,0.0
5373,266.5174
5372,715.9629
8228,221.0743
129642,320.052
284273,528.1219
1327,5862.8039
1329,1111.1512
27068,720.3409
4200,1114.0411
50808,2767.7636
84889,2.8899
127124,0.0
11212,1582.1985
23315,536.7843
126328,1522.9635
93183,292.5983
6609,801.2138
5947,748.4738
2729,1402.3047
26330,0.7225
5948,0.0
10858,22.3964
27087,2.1674
51733,5.0573
51227,372.7992
27089,1137.16
5152,651.2661
60559,3182.4585
245973,18.0833
245972,0.0
25796,390.8536
2990,727.5223
2350,918.9755
2356,562.0778
10678,349.6731
57194,114.8719
121278,0.0
1890,117.7618
1891,4377.4157
1892,1926.0918
2137,1936.9288
2134,15.8942
2135,509.3378
4695,590.2539
4694,1180.5079
4697,3756.8183
4696,494.8885
4698,1882.7439
953,3605.5486
952,2.8899
955,540.8084
954,22.3964
957,89.4701
956,10.837
81849,203.7352
85365,429.1443
5160,2009.5944
5161,0.0
5162,1478.1635
5167,424.087
5168,866.2284
5169,18.0616
2643,59.9646
2645,4.3348
3423,4338.092
3422,545.4395
3421,987.5374
3420,1453.5997
3425,94.6429
54600,1.1848
10455,674.7823
387893,1076.473
8908,467.4277
10587,359.6286
10588,272.3693
80339,0.0
11182,39.7356
1798,511.079
142680,0.0
10841,0.0
125206,1.4449
57835,78.1274
5305,1777.264
9468,12.2819
1666,554.8532
4329,760.7123
593,729.2274
594,421.1971
123745,0.0
3141,412.5276
3145,187.1186
2820,426.2544
2821,8193.4761
1339,0.0
443,60.6871
1337,1490.4454
440,581.5844
445,1555.4673
9843,2598.7068
59272,62.132
8694,571.5927
8693,239.8584
39,239.0492
38,2214.3481
33,12.2819
32,3911.4258
30,734.747
37,5270.3393
36,932.7024
35,610.483
34,1156.6666
1537,1961.4926
645,1102.4817
644,869.8479
3098,9002.637
3099,174.1141
114134,499.9458
84890,606.8706
338,117.0393
335,0.7225
11227,0.7225
11226,28.8986
66035,227.5837
25902,55.6298
6610,60.6871
374291,888.2563
340024,0.0
9791,1036.0149
23439,0.0
10840,321.4103
5950,143.7705
5860,479.7167
10846,63.5769
5959,186.7644
51727,5713.976
3636,2566.1959
3632,2825.5608
3633,841.6718
3631,1629.8811
60386,162.5474
257202,0.0
2348,0.7225
55577,890.7994
10935,3152.115
9114,1986.0564
3706,10.1145
3707,8044.6483
3704,341.726
4668,648.7736
4669,566.4126
948,1361.1892
949,400.2455
64087,721.7426
64080,26.724
5172,8.6696
10060,1243.3697
2653,13.0044
2651,70.8015
2650,85.2508
132,134.3784
131,0.0
130,0.0
22934,218.9069
7381,5945.1649
7386,1802.5503
3418,3005.4546
3419,1809.775
27349,214.5721
125965,0.7225
56954,434.2015
641371,1029.5127
56953,130.7662
166012,0.0
23563,8.684
4860,143.7705
9061,942.8169
9060,574.3597
10449,2723.6933
5333,679.1171
160287,0.0
5332,3328.3964
112611,148.1053
10599,0.7225
8974,1051.1867
123041,5.7797
84444,237.691
51251,253.5853
27430,1586.5405
5319,0.0
5313,0.0
5315,9420.5253
8801,1574.9738
8802,2447.7116
8803,1093.8483
1650,2074.1972
6583,17.3392
6582,0.0
6581,645.8838
6580,2.1674
6584,111.2596
57026,176.2815
3157,594.5959
3156,406.0254
3155,830.8348
3158,1.4449
5407,0.0
5406,0.0
1431,3739.4718
79695,481.1617
5409,25.2863
79053,272.3693
1349,1662.3921
23556,248.528
514,3337.7885
284129,213.1272
1340,2167.3952
1345,2238.9192
1346,1345.2299
1347,1353.8995
5236,2569.0857
160728,0.0
79586,1174.0057
79581,278.8715
1503,1618.3145
3033,2046.7435
3081,2.1674
8372,29.9027
3945,8874.7606
11238,361.1531
55361,692.3961
23428,823.3573
145226,0.7225
56548,202.2902
51086,78.4886
26266,2.8899
3628,322.9419
3620,6.5022
120103,188.5634
55967,845.2841
4714,1895.7483
4715,1925.3694
4716,1455.767
4717,468.1574
4710,1357.5119
4711,1226.7457
4712,557.743
4713,1140.7723
4718,1140.0499
4719,1341.6176
10948,632.1569
55568,978.2105
1591,0.0
3712,1153.0542
79901,12830.9793
6005,5.0573
4905,780.9847
4907,812.7732
124975,0.7225
2243,0.0
7390,544.0163
5148,4.3348
5149,0.0
5146,0.0
5147,308.4925
5144,2531.7488
5145,2.1674
5142,679.1171
10720,0.0
10723,557.743
5141,193.6205
64077,593.1438
124,49.8501
125,7460.1742
127,0.7225
128,6723.9822
22929,710.1904
64078,5.0573
79071,83.0835
3417,1335.8307
116255,0.0
56922,478.2791
7388,1539.573
10610,55.6298
7389,1241.9174
57030,76.5814
26002,262.9773
6319,1226.0232
9091,498.667
9653,682.7295
22856,744.139
5091,156.0524
5092,1049.7417
5095,670.4982
5096,1327.2334
153201,0.7225
9789,511.5053
7385,5000.9031
6820,0.7225
6821,609.0381
6822,0.0
2936,914.6408
2937,362.6774
54716,0.7225
5322,758.5883
5320,4611.4944
5321,861.1783
1645,812.0507
1644,0.0
8813,502.8429
8818,325.1093
570,0.0
548596,0.0
3162,314.2723
3163,572.1923
2805,747.7585
4245,2814.7239
375056,1964.3825
1351,1639.2732
1350,3545.8585
1356,308.8828
9869,670.4548
51529,726.3736
6489,286.8187
51520,2314.778
6483,727.5223
51522,1512.1194
51523,162.5546
51524,253.5852
6487,507.0766
51526,1090.1998
51527,445.0385
58508,2845.0674
114805,54.1849
8277,0.0
8564,2.1818
8560,1873.3519
26301,46.2377
23632,38.2906
6554,0.0
6555,0.0
6556,175.2555
6557,0.7225
6550,2.8899
160428,444.3161
6553,2.1674
6558,497.7713
6559,0.0
266722,2.8899
51380,124.9864
51382,1161.7238
389015,0.0
374907,50.5726
51703,183.5061
58510,0.0
84920,57.0747
3988,922.5879
359,3.6123
358,18993.4256
6120,841.3105
4707,489.1089
4706,791.8217
4705,1496.9476
4704,1015.0634
4702,1213.0188
4701,336.6687
4700,1395.8025
4709,517.285
4708,1204.3492
27165,7.9471
280,122.1978
64711,0.0
8871,1261.5467
3764,911.0284
57282,2.8899
3767,102.5901
221823,1.4449
55825,152.4402
262,1612.542
349565,215.2946
80235,104.035
2495,34647.9789
162466,18.7841
5158,9.392
122622,138.7133
5151,576.9461
5150,130.0438
5153,377.1268
57468,0.0
124583,609.7605
115,1951.3781
114,0.0
111,1397.2474
113,351.118
112,814.9406
94033,0.0
10606,1017.9533
6307,247.0758
9469,1504.8947
196883,195.7881
6303,1489.7229
10135,2689.7374
54898,23.8413
10423,2718.636
53630,2.1674
2673,955.0988
2678,57.7972
80347,619.875
6833,8.6696
6839,184.2286
5331,672.615
5330,86.6958
10554,2381.8228
10555,574.3597
5335,2096.5935
5334,506.448
5337,285.3737
5336,368.4572
5338,394.4659
10558,886.4646
10559,425.5753
1632,664.6678
1633,351.8405
1635,1067.8033
1638,3.6123
8821,95.3655
8824,1093.8121
480,1.4449
84264,4.3348
29958,104.035
8776,355.4528
54363,0.0
3177,10.1145
3176,745.5839
7083,13.7268
79077,305.6027
7084,759.3108
7086,8277.2821
6540,3.6124
137872,345.3889
29796,1012.896
1743,3213.5245
8170,0.7225
23533,140.1582
23530,2371.1303
1160,298.3781
4248,70.0791
4249,221.0743
4247,438.5363
23539,0.7225
2582,90.3153
48,2308.9983
47,1940.5411
43,5.05
1562,0.0
1565,0.7225
8398,122.0966
8399,0.0
8394,1141.4948
8395,159.6648
8396,2436.1521
9380,1645.053
10317,0.7225
6547,39.7283
6543,383.6217
6542,504.2806
6541,831.5573
55163,411.0826
5634,1204.3493
5631,629.9895
6549,0.0
6548,614.825
471,1685.5109
476,4839.0636
477,7782.3935
28976,714.8575
478,3.6123
28972,1082.9751
