644019
78988
6218
8882
100526740
100287932
729873
728689
728489
723790
692312
653604
548644
493753
440689
440345
440138
414060
414059
400569
389541
339487
338657
317781
285855
285381
283767
253714
246721
221830
220064
219927
203068
171568
166378
161424
153527
147841
134430
126003
124995
124454
122769
118460
117246
116540
116150
115106
114971
114823
114791
114049
112950
112869
93973
93624
93380
93323
92935
92856
92105
91869
91746
91603
90480
90390
90381
90121
85378
85365
84946
84930
84916
84844
84549
84516
84313
84311
84294
84285
84262
84218
84172
84138
84135
84128
83743
83732
83540
83475
81887
81875
81671
81620
81608
80789
80746
80349
80347
80273
80222
80185
80145
80018
79954
79947
79902
79897
79753
79731
79707
79693
79637
79622
79613
79587
79577
79441
79159
79084
79080
79066
79050
79039
79029
79019
65123
65095
65083
64981
64978
64975
64969
64968
64960
64951
64852
64785
64745
64432
64428
64425
64225
63931
63925
63875
60528
60490
60488
59286
58517
58485
57819
57794
57521
57405
57187
57122
57082
57062
57050
57038
57002
56949
56945
56915
56851
56683
56652
56342
56257
56160
55871
55871
55813
55795
55759
55756
55746
55726
55720
55718
55699
55683
55656
55651
55644
55622
55599
55339
55312
55290
55278
55272
55234
55226
55192
55168
55153
55149
55133
55127
55119
55100
55051
55035
55003
54998
54973
54955
54952
54948
54938
54934
54881
54707
54700
54663
54617
54606
54584
54555
54552
54512
54487
54475
54460
54205
54148
53981
51699
51690
51659
51647
51602
51593
51550
51529
51520
51514
51507
51504
51491
51490
51433
51428
51388
51386
51382
51258
51202
51187
51184
51163
51160
51117
51116
51079
51075
51073
51067
51025
51021
51012
50628
29980
29945
29927
29925
29894
29882
29127
29115
29101
28987
28956
27340
27339
27316
27292
27258
27243
27238
27166
27158
27107
27042
26973
26589
26574
26519
26517
26173
26164
26155
26121
26024
26019
26015
25988
25983
25942
25936
25930
25929
25926
25920
25885
25873
25871
25839
25828
25813
24148
24144
23759
23649
23636
23595
23560
23534
23521
23511
23481
23479
23450
23438
23404
23397
23395
23386
23383
23381
23354
23335
23293
23279
23211
23195
23174
23160
23144
23065
23049
23020
23016
22985
22984
22974
22948
22944
22916
22908
22907
22894
22845
22827
22818
11340
11338
11331
11321
11319
11316
11258
11243
11224
11222
11218
11137
11129
11128
11102
11091
11051
11017
10992
10987
10978
10969
10946
10940
10939
10907
10885
10856
10847
10844
10775
10730
10726
10713
10694
10667
10629
10623
10607
10594
10592
10576
10575
10574
10573
10556
10540
10525
10524
10514
10469
10450
10445
10423
10419
10412
10403
10399
10352
10302
10291
10262
10250
10213
10199
10189
10171
10153
10135
10128
10093
10063
10059
10056
10055
10051
10036
9997
9978
9939
9918
9904
9894
9879
9861
9837
9816
9793
9790
9785
9775
9733
9716
9700
9692
9688
9675
9670
9669
9631
9584
9570
9553
9533
9512
9493
9477
9453
9442
9440
9416
9391
9349
9343
9277
9276
9212
9188
9184
9130
9128
9126
9093
9092
9088
9054
9045
9040
9013
8914
8896
8894
8892
8891
8890
8888
8886
8881
8872
8841
8833
8815
8775
8732
8731
8697
8668
8666
8665
8664
8663
8661
8607
8565
8563
8518
8480
8449
8337
8318
8295
8243
8220
8178
8175
8106
8078
8021
7818
7536
7514
7465
7453
7415
7407
7388
7384
7372
7329
7317
7311
7307
7284
7283
7265
7203
7178
7153
7150
7037
7014
6950
6904
6903
6897
6881
6878
6837
6830
6829
6790
6749
6729
6651
6636
6635
6634
6633
6632
6621
6606
6606
6598
6597
6574
6432
6428
6427
6426
6421
6396
6390
6389
6301
6293
6241
6240
6234
6233
6230
6228
6227
6223
6222
6218
6217
6210
6209
6208
6207
6206
6205
6204
6203
6202
6201
6194
6193
6191
6189
6188
6187
6184
6182
6175
6169
6168
6167
6165
6164
6161
6160
6157
6156
6155
6154
6152
6150
6147
6142
6141
6138
6137
6136
6135
6134
6133
6132
6130
6129
6128
6125
6124
6122
6117
6009
5985
5984
5983
5982
5976
5930
5929
5917
5905
5901
5889
5888
5885
5876
5875
5859
5822
5719
5718
5713
5710
5709
5708
5707
5705
5704
5702
5701
5695
5694
5693
5692
5691
5690
5689
5688
5687
5684
5683
5682
5557
5531
5515
5500
5471
5464
5441
5439
5438
5437
5436
5435
5433
5432
5431
5430
5427
5426
5425
5422
5411
5347
5315
5245
5226
5223
5202
5198
5111
5048
5007
4967
4931
4928
4905
4839
4809
4796
4738
4736
4706
4686
4682
4677
4627
4609
4598
4597
4331
4236
4176
4175
4173
4172
4171
4144
4141
4116
3978
3921
3837
3832
3735
3705
3692
3419
3376
3336
3329
3313
3309
3276
3192
3191
3190
3183
3157
3156
3099
3035
3028
2987
2976
2975
2971
2968
2967
2960
2959
2935
2873
2733
2673
2618
2597
2553
2547
2491
2475
2356
2342
2237
2224
2197
2193
2107
2071
2068
2033
2023
1981
1973
1967
1965
1938
1937
1915
1894
1841
1798
1786
1785
1778
1743
1736
1723
1719
1665
1662
1660
1659
1650
1642
1615
1603
1503
1460
1434
1355
1350
1329
1327
1315
1314
1213
1175
1155
1119
1111
1108
1104
1072
1058
1025
991
990
988
983
902
890
833
832
741
705
545
539
537
533
527
526
523
513
498
488
471
402
372
332
191
159
158
86
50
47
16
14